{
    "dockerComposeFile": [
        "../../docker-compose.yml",
        "dev-compose.yml"
    ],
    "service": "fin-api-dev",
    "workspaceFolder": "/workspaces/backend",
    "postCreateCommand": "uv sync --frozen && git config --global user.name 'Joe Castagneri' && git config --global user.email 'jcastagneri@gmail.com' && git config --global --add safe.directory /workspaces",
    "features": {
        "ghcr.io/devcontainers/features/common-utils:2": {},
        "ghcr.io/devcontainers-contrib/features/zsh-plugins:0": {
            "plugins": "vim-interaction git python"
        },
        "ghcr.io/guiyomh/features/vim:0": {},
        "ghcr.io/cirolosapio/devcontainers-features/alpine-openssh:0": {}
    },
    "customizations": {
        "vscode": {
            "extensions": [
                "ms-python.python",
                "eamodio.gitlens",
                "augment.vscode-augment"
            ],
            "settings": {
                "python.pythonPath": "/workspaces/backend/.venv-container/bin/python",
                "terminal.integrated.defaultProfile.linux": "zsh",
                "terminal.integrated.profiles.linux": {
                    "zsh": {
                        "path": "/bin/zsh"
                    }
                },
                "black-formatter.args": [
					"--line-length",
					"120"
				],
				"isort.args": [
					"--profile",
					"black"
				]
            }
        }
    }
}